firmware_builds/systems/system_20260427_testplanphase5/captures/phase4e_muxdeasm_emu_data8low_clean_20260425_1258.vcd
$comment
Copyright (C) 2018  Intel Corporation. All rights reserved.
Your use of Intel Corporation's design tools, logic functions 
and other software and tools, and its AMPP partner logic 
functions, and any output files from any of the foregoing 
(including device programming or simulation files), and any 
associated documentation or information are expressly subject 
to the terms and conditions of the Intel Program License 
Subscription Agreement, the Intel Quartus Prime License Agreement,
the Intel FPGA IP License Agreement, or other applicable license
agreement, including, without limitation, that your use is for
the sole purpose of programming logic devices manufactured by
Intel and sold by Intel or its authorized distributors.  Please
refer to the applicable agreement for further details.
$end

$date 
  04/25/2026 12:45:41 
$end
$version 
 QUARTUS_VCD_EXPORT 1.0 
$end
$timescale
  1 ps
$end
$scope module u_feb_system $end
$scope module u_qsys $end
$scope module data_path_subsystem $end
$var reg 1 ! lvds_outclock_clk $end
$var reg 1 " runctl_mgmt_host_valid $end
$var reg 1 # runctl_mgmt_host_data[0] $end
$var reg 1 $ runctl_mgmt_host_data[1] $end
$var reg 1 % runctl_mgmt_host_data[2] $end
$var reg 1 & runctl_mgmt_host_data[3] $end
$var reg 1 ' runctl_mgmt_host_data[4] $end
$var reg 1 ( runctl_mgmt_host_data[5] $end
$var reg 1 ) runctl_mgmt_host_data[6] $end
$var reg 1 * runctl_mgmt_host_data[7] $end
$var reg 1 + runctl_mgmt_host_data[8] $end
$scope module decoded_lane_fifo_0 $end
$var reg 1 , in_valid $end
$var reg 1 - in_ready $end
$var reg 1 . in_data[0] $end
$var reg 1 / in_data[1] $end
$var reg 1 0 in_data[2] $end
$var reg 1 1 in_data[3] $end
$var reg 1 2 in_data[4] $end
$var reg 1 3 in_data[5] $end
$var reg 1 4 in_data[6] $end
$var reg 1 5 in_data[7] $end
$var reg 1 6 in_data[8] $end
$var reg 1 7 in_error[0] $end
$var reg 1 8 in_error[1] $end
$var reg 1 9 in_error[2] $end
$var reg 1 : in_channel[0] $end
$var reg 1 ; in_channel[1] $end
$var reg 1 < in_channel[2] $end
$var reg 1 = in_channel[3] $end
$var reg 1 > in_channel[4] $end
$var reg 1 ? out_valid $end
$var reg 1 @ out_ready $end
$var reg 1 A out_data[0] $end
$var reg 1 B out_data[1] $end
$var reg 1 C out_data[2] $end
$var reg 1 D out_data[3] $end
$var reg 1 E out_data[4] $end
$var reg 1 F out_data[5] $end
$var reg 1 G out_data[6] $end
$var reg 1 H out_data[7] $end
$var reg 1 I out_data[8] $end
$var reg 1 J out_error[0] $end
$var reg 1 K out_error[1] $end
$var reg 1 L out_error[2] $end
$var reg 1 M out_channel[0] $end
$var reg 1 N out_channel[1] $end
$var reg 1 O out_channel[2] $end
$var reg 1 P out_channel[3] $end
$var reg 1 Q out_channel[4] $end
$upscope $end
$scope module emulator_mutrig_0 $end
$var reg 1 R asi_ctrl_valid $end
$var reg 1 S asi_ctrl_data[0] $end
$var reg 1 T asi_ctrl_data[1] $end
$var reg 1 U asi_ctrl_data[2] $end
$var reg 1 V asi_ctrl_data[3] $end
$var reg 1 W asi_ctrl_data[4] $end
$var reg 1 X asi_ctrl_data[5] $end
$var reg 1 Y asi_ctrl_data[6] $end
$var reg 1 Z asi_ctrl_data[7] $end
$var reg 1 [ asi_ctrl_data[8] $end
$var reg 1 \ asi_ctrl_ready $end
$var reg 1 ] ctrl_state_q[3] $end
$var reg 1 ^ ctrl_state_q[4] $end
$var reg 1 _ aso_tx8b1k_valid $end
$var reg 1 ` aso_tx8b1k_data[0] $end
$var reg 1 a aso_tx8b1k_data[1] $end
$var reg 1 b aso_tx8b1k_data[2] $end
$var reg 1 c aso_tx8b1k_data[3] $end
$var reg 1 d aso_tx8b1k_data[4] $end
$var reg 1 e aso_tx8b1k_data[5] $end
$var reg 1 f aso_tx8b1k_data[6] $end
$var reg 1 g aso_tx8b1k_data[7] $end
$var reg 1 h aso_tx8b1k_data[8] $end
$var reg 1 i aso_tx8b1k_error[0] $end
$var reg 1 j aso_tx8b1k_error[1] $end
$var reg 1 k aso_tx8b1k_error[2] $end
$var reg 1 l aso_tx8b1k_channel[0] $end
$var reg 1 m aso_tx8b1k_channel[1] $end
$var reg 1 n aso_tx8b1k_channel[2] $end
$var reg 1 o aso_tx8b1k_channel[3] $end
$upscope $end
$scope module avalon_st_adapter_009 $end
$var reg 1 p in_0_valid $end
$var reg 1 q in_0_ready $end
$var reg 1 r in_0_data[0] $end
$var reg 1 s in_0_data[1] $end
$var reg 1 t in_0_data[2] $end
$var reg 1 u in_0_data[3] $end
$var reg 1 v in_0_data[4] $end
$var reg 1 w in_0_data[5] $end
$var reg 1 x in_0_data[6] $end
$var reg 1 y in_0_data[7] $end
$var reg 1 z in_0_data[8] $end
$var reg 1 { in_0_error[0] $end
$var reg 1 | in_0_error[1] $end
$var reg 1 } in_0_error[2] $end
$var reg 1 ~ in_0_channel[0] $end
$var reg 1 !! in_0_channel[1] $end
$var reg 1 !" in_0_channel[2] $end
$var reg 1 !# in_0_channel[3] $end
$var reg 1 !$ in_0_channel[4] $end
$var reg 1 !% out_0_valid $end
$var reg 1 !& out_0_data[0] $end
$var reg 1 !' out_0_data[1] $end
$var reg 1 !( out_0_data[2] $end
$var reg 1 !) out_0_data[3] $end
$var reg 1 !* out_0_data[4] $end
$var reg 1 !+ out_0_data[5] $end
$var reg 1 !, out_0_data[6] $end
$var reg 1 !- out_0_data[7] $end
$var reg 1 !. out_0_data[8] $end
$var reg 1 !/ out_0_error[0] $end
$var reg 1 !0 out_0_error[1] $end
$var reg 1 !1 out_0_error[2] $end
$var reg 1 !2 out_0_channel[0] $end
$var reg 1 !3 out_0_channel[1] $end
$var reg 1 !4 out_0_channel[2] $end
$var reg 1 !5 out_0_channel[3] $end
$upscope $end
$scope module avalon_st_adapter_019 $end
$var reg 1 !6 out_0_valid $end
$var reg 1 !7 out_0_data[0] $end
$var reg 1 !8 out_0_data[1] $end
$var reg 1 !9 out_0_data[2] $end
$var reg 1 !: out_0_data[3] $end
$var reg 1 !; out_0_data[4] $end
$var reg 1 !< out_0_data[5] $end
$var reg 1 != out_0_data[6] $end
$var reg 1 !> out_0_data[7] $end
$var reg 1 !? out_0_data[8] $end
$var reg 1 !@ out_0_ready $end
$upscope $end
$scope module avalon_st_adapter_022 $end
$var reg 1 !A out_0_valid $end
$var reg 1 !B out_0_data[0] $end
$var reg 1 !C out_0_data[1] $end
$var reg 1 !D out_0_data[2] $end
$var reg 1 !E out_0_data[3] $end
$var reg 1 !F out_0_data[4] $end
$var reg 1 !G out_0_data[5] $end
$var reg 1 !H out_0_data[6] $end
$var reg 1 !I out_0_data[7] $end
$var reg 1 !J out_0_data[8] $end
$var reg 1 !K out_0_ready $end
$upscope $end
$scope module avalon_st_adapter_026 $end
$var reg 1 !L out_0_valid $end
$var reg 1 !M out_0_data[0] $end
$var reg 1 !N out_0_data[1] $end
$var reg 1 !O out_0_data[2] $end
$var reg 1 !P out_0_data[3] $end
$var reg 1 !Q out_0_data[4] $end
$var reg 1 !R out_0_data[5] $end
$var reg 1 !S out_0_data[6] $end
$var reg 1 !T out_0_data[7] $end
$var reg 1 !U out_0_data[8] $end
$var reg 1 !V out_0_ready $end
$upscope $end
$scope module avalon_st_adapter_034 $end
$var reg 1 !W in_0_valid $end
$var reg 1 !X in_0_data[0] $end
$var reg 1 !Y in_0_data[1] $end
$var reg 1 !Z in_0_data[2] $end
$var reg 1 ![ in_0_data[3] $end
$var reg 1 !\ in_0_data[4] $end
$var reg 1 !] in_0_data[5] $end
$var reg 1 !^ in_0_data[6] $end
$var reg 1 !_ in_0_data[7] $end
$var reg 1 !` in_0_data[8] $end
$var reg 1 !a in_0_error[0] $end
$var reg 1 !b in_0_error[1] $end
$var reg 1 !c in_0_error[2] $end
$var reg 1 !d in_0_channel[0] $end
$var reg 1 !e in_0_channel[1] $end
$var reg 1 !f in_0_channel[2] $end
$var reg 1 !g in_0_channel[3] $end
$var reg 1 !h out_0_valid $end
$var reg 1 !i out_0_ready $end
$var reg 1 !j out_0_data[0] $end
$var reg 1 !k out_0_data[1] $end
$var reg 1 !l out_0_data[2] $end
$var reg 1 !m out_0_data[3] $end
$var reg 1 !n out_0_data[4] $end
$var reg 1 !o out_0_data[5] $end
$var reg 1 !p out_0_data[6] $end
$var reg 1 !q out_0_data[7] $end
$var reg 1 !r out_0_data[8] $end
$var reg 1 !s out_0_error[0] $end
$var reg 1 !t out_0_error[1] $end
$var reg 1 !u out_0_error[2] $end
$var reg 1 !v out_0_channel[0] $end
$var reg 1 !w out_0_channel[1] $end
$var reg 1 !x out_0_channel[2] $end
$var reg 1 !y out_0_channel[3] $end
$var reg 1 !z out_0_channel[4] $end
$upscope $end
$scope module mutrig_datapath_subsystem_0 $end
$scope module mutrig_frame_deassembly_0 $end
$var reg 1 !{ asi_ctrl_valid $end
$var reg 1 !| asi_ctrl_data[0] $end
$var reg 1 !} asi_ctrl_data[1] $end
$var reg 1 !~ asi_ctrl_data[2] $end
$var reg 1 "! asi_ctrl_data[3] $end
$var reg 1 "" asi_ctrl_data[4] $end
$var reg 1 "# asi_ctrl_data[5] $end
$var reg 1 "$ asi_ctrl_data[6] $end
$var reg 1 "% asi_ctrl_data[7] $end
$var reg 1 "& asi_ctrl_data[8] $end
$var reg 1 "' asi_ctrl_ready $end
$var reg 1 "( \run_state_cmd.RUN_PREPARE  $end
$var reg 1 ") \run_state_cmd.SYNC  $end
$var reg 1 "* \run_state_cmd.RUNNING  $end
$var reg 1 "+ \run_state_cmd.TERMINATING  $end
$var reg 1 ", receiver_go $end
$var reg 1 "- enable $end
$var reg 1 ". i_byteisk $end
$var reg 1 "/ n_frame_info_ready $end
$var reg 1 "0 aso_hit_type0_valid $end
$var reg 1 "1 aso_hit_type0_startofpacket $end
$var reg 1 "2 aso_hit_type0_endofpacket $end
$var reg 1 "3 i_data[0] $end
$var reg 1 "4 i_data[1] $end
$var reg 1 "5 i_data[2] $end
$var reg 1 "6 i_data[3] $end
$var reg 1 "7 i_data[4] $end
$var reg 1 "8 i_data[5] $end
$var reg 1 "9 i_data[6] $end
$var reg 1 ": i_data[7] $end
$var reg 1 "; p_frame_flags[0] $end
$var reg 1 "< p_frame_flags[1] $end
$var reg 1 "= p_frame_flags[2] $end
$var reg 1 "> p_frame_flags[3] $end
$var reg 1 "? p_frame_flags[4] $end
$var reg 1 "@ p_frame_flags[5] $end
$var reg 1 "A p_frame_len[0] $end
$var reg 1 "B p_frame_len[1] $end
$var reg 1 "C p_frame_len[2] $end
$var reg 1 "D p_frame_len[3] $end
$var reg 1 "E p_frame_len[4] $end
$var reg 1 "F p_frame_len[5] $end
$var reg 1 "G p_frame_len[6] $end
$var reg 1 "H p_frame_len[7] $end
$var reg 1 "I p_frame_len[8] $end
$var reg 1 "J p_frame_len[9] $end
$var reg 1 "K aso_hit_type0_error[0] $end
$var reg 1 "L aso_hit_type0_error[1] $end
$var reg 1 "M aso_hit_type0_error[2] $end
$var reg 1 "N aso_hit_type0_channel[0] $end
$var reg 1 "O aso_hit_type0_channel[1] $end
$var reg 1 "P aso_hit_type0_channel[2] $end
$var reg 1 "Q aso_hit_type0_channel[3] $end
$var reg 1 "R \p_state.FS_IDLE  $end
$var reg 1 "S \p_state.FS_FRAME_COUNTER  $end
$var reg 1 "T \p_state.FS_EVENT_COUNTER  $end
$var reg 1 "U \p_state.FS_UNPACK  $end
$var reg 1 "V \p_state.FS_UNPACK_EXTRA  $end
$var reg 1 "W \p_state.FS_CRC_CALC  $end
$var reg 1 "X \p_state.FS_CRC_CHECK  $end
$var reg 1 "Y \p_state.FS_ERROR  $end
$var reg 1 "Z asi_rx8b1k_valid $end
$var reg 1 "[ asi_rx8b1k_data[0] $end
$var reg 1 "\ asi_rx8b1k_data[1] $end
$var reg 1 "] asi_rx8b1k_data[2] $end
$var reg 1 "^ asi_rx8b1k_data[3] $end
$var reg 1 "_ asi_rx8b1k_data[4] $end
$var reg 1 "` asi_rx8b1k_data[5] $end
$var reg 1 "a asi_rx8b1k_data[6] $end
$var reg 1 "b asi_rx8b1k_data[7] $end
$var reg 1 "c asi_rx8b1k_data[8] $end
$var reg 1 "d asi_rx8b1k_error[0] $end
$var reg 1 "e asi_rx8b1k_error[1] $end
$var reg 1 "f asi_rx8b1k_error[2] $end
$var reg 1 "g asi_rx8b1k_channel[0] $end
$var reg 1 "h asi_rx8b1k_channel[1] $end
$var reg 1 "i asi_rx8b1k_channel[2] $end
$var reg 1 "j asi_rx8b1k_channel[3] $end
$upscope $end
$upscope $end
$scope module rst_controller_001 $end
$var reg 1 "k reset_out $end
$upscope $end
$scope module run_control_splitter $end
$var reg 1 "l out1_valid $end
$var reg 1 "m out1_data[0] $end
$var reg 1 "n out1_data[1] $end
$var reg 1 "o out1_data[2] $end
$var reg 1 "p out1_data[3] $end
$var reg 1 "q out1_data[4] $end
$var reg 1 "r out1_data[5] $end
$var reg 1 "s out1_data[6] $end
$var reg 1 "t out1_data[7] $end
$var reg 1 "u out1_data[8] $end
$var reg 1 "v out2_valid $end
$var reg 1 "w out2_data[0] $end
$var reg 1 "x out2_data[1] $end
$var reg 1 "y out2_data[2] $end
$var reg 1 "z out2_data[3] $end
$var reg 1 "{ out2_data[4] $end
$var reg 1 "| out2_data[5] $end
$var reg 1 "} out2_data[6] $end
$var reg 1 "~ out2_data[7] $end
$var reg 1 #! out2_data[8] $end
$var reg 1 #" out12_valid $end
$var reg 1 ## out12_data[0] $end
$var reg 1 #$ out12_data[1] $end
$var reg 1 #% out12_data[2] $end
$var reg 1 #& out12_data[3] $end
$var reg 1 #' out12_data[4] $end
$var reg 1 #( out12_data[5] $end
$var reg 1 #) out12_data[6] $end
$var reg 1 #* out12_data[7] $end
$var reg 1 #+ out12_data[8] $end
$upscope $end
$scope module mts_preprocessor_0 $end
$var reg 1 #, asi_ctrl_valid $end
$var reg 1 #- asi_ctrl_data[0] $end
$var reg 1 #. asi_ctrl_data[1] $end
$var reg 1 #/ asi_ctrl_data[2] $end
$var reg 1 #0 asi_ctrl_data[3] $end
$var reg 1 #1 asi_ctrl_data[4] $end
$var reg 1 #2 asi_ctrl_data[5] $end
$var reg 1 #3 asi_ctrl_data[6] $end
$var reg 1 #4 asi_ctrl_data[7] $end
$var reg 1 #5 asi_ctrl_data[8] $end
$var reg 1 #6 asi_ctrl_ready $end
$var reg 1 #7 \run_state_cmd.RUN_PREPARE  $end
$var reg 1 #8 \run_state_cmd.SYNC  $end
$var reg 1 #9 \run_state_cmd.RUNNING  $end
$var reg 1 #: \run_state_cmd.TERMINATING  $end
$var reg 1 #; \processor_state.RUNNING  $end
$var reg 1 #< aso_hit_type1_valid $end
$var reg 1 #= aso_hit_type1_ready $end
$upscope $end
$scope module mutrig_lane_source_mux_0 $end
$var reg 1 #> asi_emu_valid $end
$var reg 1 #? asi_emu_data[0] $end
$var reg 1 #@ asi_emu_data[1] $end
$var reg 1 #A asi_emu_data[2] $end
$var reg 1 #B asi_emu_data[3] $end
$var reg 1 #C asi_emu_data[4] $end
$var reg 1 #D asi_emu_data[5] $end
$var reg 1 #E asi_emu_data[6] $end
$var reg 1 #F asi_emu_data[7] $end
$var reg 1 #G asi_emu_data[8] $end
$var reg 1 #H asi_emu_error[0] $end
$var reg 1 #I asi_emu_error[1] $end
$var reg 1 #J asi_emu_error[2] $end
$var reg 1 #K asi_emu_channel[0] $end
$var reg 1 #L asi_emu_channel[1] $end
$var reg 1 #M asi_emu_channel[2] $end
$var reg 1 #N asi_emu_channel[3] $end
$var reg 1 #O aso_valid $end
$var reg 1 #P aso_data[0] $end
$var reg 1 #Q aso_data[1] $end
$var reg 1 #R aso_data[2] $end
$var reg 1 #S aso_data[3] $end
$var reg 1 #T aso_data[4] $end
$var reg 1 #U aso_data[5] $end
$var reg 1 #V aso_data[6] $end
$var reg 1 #W aso_data[7] $end
$var reg 1 #X aso_data[8] $end
$var reg 1 #Y aso_error[0] $end
$var reg 1 #Z aso_error[1] $end
$var reg 1 #[ aso_error[2] $end
$var reg 1 #\ aso_channel[0] $end
$var reg 1 #] aso_channel[1] $end
$var reg 1 #^ aso_channel[2] $end
$var reg 1 #_ aso_channel[3] $end
$upscope $end
$upscope $end
$scope module upload_subsystem $end
$var reg 1 #` runctl_mgmt_host_valid $end
$var reg 1 #a runctl_mgmt_host_data[0] $end
$var reg 1 #b runctl_mgmt_host_data[1] $end
$var reg 1 #c runctl_mgmt_host_data[2] $end
$var reg 1 #d runctl_mgmt_host_data[3] $end
$var reg 1 #e runctl_mgmt_host_data[4] $end
$var reg 1 #f runctl_mgmt_host_data[5] $end
$var reg 1 #g runctl_mgmt_host_data[6] $end
$var reg 1 #h runctl_mgmt_host_data[7] $end
$var reg 1 #i runctl_mgmt_host_data[8] $end
$upscope $end
$upscope $end
$upscope $end
$enddefinitions $end
#0
$dumpvars
0!
X"
X#
X$
X%
X&
X'
X(
X)
X*
X+
X,
X-
X.
X/
X0
X1
X2
X3
X4
X5
X6
X7
X8
X9
X:
X;
X<
X=
X>
X?
X@
XA
XB
XC
XD
XE
XF
XG
XH
XI
XJ
XK
XL
XM
XN
XO
XP
XQ
XR
XS
XT
XU
XV
XW
XX
XY
XZ
X[
X\
X]
X^
X_
X`
Xa
Xb
Xc
Xd
Xe
Xf
Xg
Xh
Xi
Xj
Xk
Xl
Xm
Xn
Xo
Xp
Xq
Xr
Xs
Xt
Xu
Xv
Xw
Xx
Xy
Xz
X{
X|
X}
X~
X!!
X!"
X!#
X!$
X!%
X!&
X!'
X!(
X!)
X!*
X!+
X!,
X!-
X!.
X!/
X!0
X!1
X!2
X!3
X!4
X!5
X!6
X!7
X!8
X!9
X!:
X!;
X!<
X!=
X!>
X!?
X!@
X!A
X!B
X!C
X!D
X!E
X!F
X!G
X!H
X!I
X!J
X!K
X!L
X!M
X!N
X!O
X!P
X!Q
X!R
X!S
X!T
X!U
X!V
X!W
X!X
X!Y
X!Z
X![
X!\
X!]
X!^
X!_
X!`
X!a
X!b
X!c
X!d
X!e
X!f
X!g
X!h
X!i
X!j
X!k
X!l
X!m
X!n
X!o
X!p
X!q
X!r
X!s
X!t
X!u
X!v
X!w
X!x
X!y
X!z
X!{
X!|
X!}
X!~
X"!
X""
X"#
X"$
X"%
X"&
X"'
X"(
X")
X"*
X"+
X",
X"-
X".
X"/
X"0
X"1
X"2
X"3
X"4
X"5
X"6
X"7
X"8
X"9
X":
X";
X"<
X"=
X">
X"?
X"@
X"A
X"B
X"C
X"D
X"E
X"F
X"G
X"H
X"I
X"J
X"K
X"L
X"M
X"N
X"O
X"P
X"Q
X"R
X"S
X"T
X"U
X"V
X"W
X"X
X"Y
X"Z
X"[
X"\
X"]
X"^
X"_
X"`
X"a
X"b
X"c
X"d
X"e
X"f
X"g
X"h
X"i
X"j
X"k
X"l
X"m
X"n
X"o
X"p
X"q
X"r
X"s
X"t
X"u
X"v
X"w
X"x
X"y
X"z
X"{
X"|
X"}
X"~
X#!
X#"
X##
X#$
X#%
X#&
X#'
X#(
X#)
X#*
X#+
X#,
X#-
X#.
X#/
X#0
X#1
X#2
X#3
X#4
X#5
X#6
X#7
X#8
X#9
X#:
X#;
X#<
X#=
X#>
X#?
X#@
X#A
X#B
X#C
X#D
X#E
X#F
X#G
X#H
X#I
X#J
X#K
X#L
X#M
X#N
X#O
X#P
X#Q
X#R
X#S
X#T
X#U
X#V
X#W
X#X
X#Y
X#Z
X#[
X#\
X#]
X#^
X#_
X#`
X#a
X#b
X#c
X#d
X#e
X#f
X#g
X#h
X#i
$end
#500
$comment Sample 0 (Start/Trigger) $end
1!
0"
0#
0$
0%
1&
0'
0(
0)
0*
0+
1,
1-
0.
0/
10
11
12
13
04
15
16
07
08
09
0:
0;
0<
0=
0>
1?
1@
0A
0B
1C
1D
1E
1F
0G
1H
1I
0J
0K
0L
0M
0N
0O
0P
0Q
0R
0S
0T
0U
1V
0W
0X
0Y
0Z
0[
1\
1]
0^
1_
0`
0a
1b
1c
1d
1e
0f
1g
1h
0i
0j
0k
0l
0m
0n
0o
1p
1q
0r
0s
1t
1u
1v
1w
0x
1y
1z
0{
0|
0}
0~
0!!
0!"
0!#
0!$
1!%
0!&
0!'
1!(
1!)
1!*
1!+
0!,
1!-
1!.
0!/
0!0
0!1
0!2
0!3
0!4
0!5
0!6
0!7
0!8
0!9
1!:
0!;
0!<
0!=
0!>
0!?
1!@
0!A
0!B
0!C
0!D
1!E
0!F
0!G
0!H
0!I
0!J
1!K
0!L
0!M
0!N
0!O
1!P
0!Q
0!R
0!S
0!T
0!U
1!V
1!W
0!X
0!Y
1!Z
1![
1!\
1!]
0!^
1!_
1!`
0!a
0!b
0!c
0!d
0!e
0!f
0!g
1!h
1!i
0!j
0!k
1!l
1!m
1!n
1!o
0!p
1!q
1!r
0!s
0!t
0!u
0!v
0!w
0!x
0!y
0!z
0!{
0!|
0!}
0!~
1"!
0""
0"#
0"$
0"%
0"&
1"'
0"(
0")
1"*
0"+
1",
1"-
1".
0"/
0"0
0"1
0"2
0"3
0"4
1"5
1"6
1"7
1"8
0"9
1":
0";
0"<
0"=
0">
0"?
0"@
0"A
0"B
0"C
0"D
0"E
0"F
0"G
0"H
0"I
0"J
0"K
0"L
0"M
0"N
0"O
0"P
0"Q
1"R
0"S
0"T
0"U
0"V
0"W
0"X
0"Y
1"Z
0"[
0"\
1"]
1"^
1"_
1"`
0"a
1"b
1"c
0"d
0"e
0"f
0"g
0"h
0"i
0"j
0"k
0"l
0"m
0"n
0"o
1"p
0"q
0"r
0"s
0"t
0"u
0"v
0"w
0"x
0"y
1"z
0"{
0"|
0"}
0"~
0#!
0#"
0##
0#$
0#%
1#&
0#'
0#(
0#)
0#*
0#+
0#,
0#-
0#.
0#/
1#0
0#1
0#2
0#3
0#4
0#5
1#6
0#7
0#8
1#9
0#:
1#;
0#<
1#=
1#>
0#?
0#@
1#A
1#B
1#C
1#D
0#E
1#F
1#G
0#H
0#I
0#J
0#K
0#L
0#M
0#N
1#O
0#P
0#Q
1#R
1#S
1#T
1#U
0#V
1#W
1#X
0#Y
0#Z
0#[
0#\
0#]
0#^
0#_
0#`
0#a
0#b
0#c
1#d
0#e
0#f
0#g
0#h
0#i
#1000
0!
#1500
1!
0-
0?
0p
0!%
0!i
0"Z
#2000
0!
#2500
1!
1-
1?
1p
1!%
1!i
1"Z
#3000
0!
#3500
1!
0-
0?
0p
0!%
0!i
0"Z
#4000
0!
#4500
1!
1-
1?
1p
1!%
1!i
1"Z
#5000
0!
#5500
1!
0-
0?
0p
0!%
0!i
0"Z
#6000
0!
#6500
1!
1-
1?
1p
1!%
1!i
1"Z
#7000
0!
#7500
1!
0-
0?
0p
0!%
0!i
0"Z
#8000
0!
#8500
1!
1-
1?
1p
1!%
1!i
1"Z
#9000
0!
#9500
1!
0-
0?
0p
0!%
0!i
0"Z
#10000
0!
#10500
1!
1-
1?
1p
1!%
1!i
1"Z
#11000
0!
#11500
1!
0-
0?
0p
0!%
0!i
0"Z
#12000
0!
#12500
1!
1-
1?
1p
1!%
1!i
1"Z
#13000
0!
#13500
1!
0-
0?
0p
0!%
0!i
0"Z
#14000
0!
#14500
1!
1-
1?
1p
1!%
1!i
1"Z
#15000
0!
#15500
1!
0-
0?
0p
0!%
0!i
0"Z
#16000
0!
#16500
1!
1-
1?
1p
1!%
1!i
1"Z
#17000
0!
#17500
1!
0-
0?
0p
0!%
0!i
0"Z
#18000
0!
#18500
1!
1-
1?
1p
1!%
1!i
1"Z
#19000
0!
#19500
1!
0-
0?
0p
0!%
0!i
0"Z
#20000
0!
#20500
1!
1-
1?
1p
1!%
1!i
1"Z
#21000
0!
#21500
1!
0-
0?
0p
0!%
0!i
0"Z
#22000
0!
#22500
1!
1-
1?
1p
1!%
1!i
1"Z
#23000
0!
#23500
1!
0-
0?
0p
0!%
0!i
0"Z
#24000
0!
#24500
1!
1-
1?
1p
1!%
1!i
1"Z
#25000
0!
#25500
1!
0-
0?
0p
0!%
0!i
0"Z
#26000
0!
#26500
1!
1-
1?
1p
1!%
1!i
1"Z
#27000
0!
#27500
1!
0-
0?
0p
0!%
0!i
0"Z
#28000
0!
#28500
1!
1-
1?
1p
1!%
1!i
1"Z
#29000
0!
#29500
1!
0-
0?
0p
0!%
0!i
0"Z
#30000
0!
#30500
1!
1-
1?
1p
1!%
1!i
1"Z
#31000
0!
#31500
1!
0-
0?
0p
0!%
0!i
0"Z
#32000
0!
#32500
1!
1-
1?
1p
1!%
1!i
1"Z
#33000
0!
#33500
1!
0-
0?
0p
0!%
0!i
0"Z
#34000
0!
#34500
1!
1-
1?
1p
1!%
1!i
1"Z
#35000
0!
#35500
1!
0-
0?
0p
0!%
0!i
0"Z
#36000
0!
#36500
1!
1-
1?
1p
1!%
1!i
1"Z
#37000
0!
#37500
1!
0-
0?
0p
0!%
0!i
0"Z
#38000
0!
#38500
1!
1-
1?
1p
1!%
1!i
1"Z
#39000
0!
#39500
1!
0-
0?
0p
0!%
0!i
0"Z
#40000
0!
#40500
1!
1-
1?
1p
1!%
1!i
1"Z
#41000
0!
#41500
1!
0-
0?
0p
0!%
0!i
0"Z
#42000
0!
#42500
1!
1-
1?
1p
1!%
1!i
1"Z
#43000
0!
#43500
1!
0-
0?
0p
0!%
0!i
0"Z
#44000
0!
#44500
1!
1-
1?
1p
1!%
1!i
1"Z
#45000
0!
#45500
1!
0-
0?
0p
0!%
0!i
0"Z
#46000
0!
#46500
1!
1-
1?
1p
1!%
1!i
1"Z
#47000
0!
#47500
1!
0-
0?
0p
0!%
0!i
0"Z
#48000
0!
#48500
1!
1-
1?
1p
1!%
1!i
1"Z
#49000
0!
#49500
1!
0-
0?
0p
0!%
0!i
0"Z
#50000
0!
#50500
1!
1-
1?
1p
1!%
1!i
1"Z
#51000
0!
#51500
1!
0-
0?
0p
0!%
0!i
0"Z
#52000
0!
#52500
1!
1-
1?
1p
1!%
1!i
1"Z
#53000
0!
#53500
1!
0-
0?
0p
0!%
0!i
0"Z
#54000
0!
#54500
1!
1-
1?
1p
1!%
1!i
1"Z
#55000
0!
#55500
1!
0-
0?
0p
0!%
0!i
0"Z
#56000
0!
#56500
1!
1-
1?
1p
1!%
1!i
1"Z
#57000
0!
#57500
1!
0-
0?
0p
0!%
0!i
0"Z
#58000
0!
#58500
1!
1-
1?
1p
1!%
1!i
1"Z
#59000
0!
#59500
1!
0-
0?
0p
0!%
0!i
0"Z
#60000
0!
#60500
1!
1-
1?
1p
1!%
1!i
1"Z
#61000
0!
#61500
1!
0-
0?
0p
0!%
0!i
0"Z
#62000
0!
#62500
1!
1-
1?
1p
1!%
1!i
1"Z
#63000
0!
#63500
1!
0-
03
05
0?
0e
0g
0p
0!%
0!]
0!_
0!i
0!o
0!q
0"Z
0#D
0#F
0#U
0#W
#64000
0!
#64500
1!
1-
00
01
02
06
1?
0b
0c
0d
0h
1p
1!%
0!Z
0![
0!\
0!`
1!i
0!l
0!m
0!n
0!r
1"Z
0#A
0#B
0#C
0#G
0#R
0#S
0#T
0#X
#65000
0!
#65500
1!
0-
0?
0p
0!%
0!i
0"Z
#66000
0!
#66500
1!
1-
11
15
1?
1c
1g
1p
1!%
1![
1!_
1!i
1!m
1!q
1"Z
1#B
1#F
1#S
1#W
#67000
0!
#67500
1!
0-
1.
1/
10
12
13
05
0?
1`
1a
1b
1d
1e
0g
0p
0!%
1!X
1!Y
1!Z
1!\
1!]
0!_
0!i
1!j
1!k
1!l
1!n
1!o
0!q
0"Z
1#?
1#@
1#A
1#C
1#D
0#F
1#P
1#Q
1#R
1#T
1#U
0#W
#68000
0!
#68500
1!
1-
00
01
02
03
1?
0b
0c
0d
0e
1p
1!%
0!Z
0![
0!\
0!]
1!i
0!l
0!m
0!n
0!o
1"Z
0#A
0#B
0#C
0#D
0#R
0#S
0#T
0#U
#69000
0!
#69500
1!
0-
0.
13
0?
0`
1e
0p
0!%
0!X
1!]
0!i
0!j
1!o
0"Z
0#?
1#D
0#P
1#U
#70000
0!
#70500
1!
1-
0/
11
14
15
1?
0a
1c
1f
1g
1p
1!%
0!Y
1![
1!^
1!_
1!i
0!k
1!m
1!p
1!q
1"Z
0#@
1#B
1#E
1#F
0#Q
1#S
1#V
1#W
#71000
0!
#71500
1!
0-
1.
12
03
04
05
0?
1`
1d
0e
0f
0g
0p
0!%
1!X
1!\
0!]
0!^
0!_
0!i
1!j
1!n
0!o
0!p
0!q
0"Z
1#?
1#C
0#D
0#E
0#F
1#P
1#T
0#U
0#V
0#W
#72000
0!
#72500
1!
1-
1/
10
01
1?
1a
1b
0c
1p
1!%
1!Y
1!Z
0![
1!i
1!k
1!l
0!m
1"Z
1#@
1#A
0#B
1#Q
1#R
0#S
#73000
0!
#73500
1!
0-
0/
00
02
14
0?
0a
0b
0d
1f
0p
0!%
0!Y
0!Z
0!\
1!^
0!i
0!k
0!l
0!n
1!p
0"Z
0#@
0#A
0#C
1#E
0#Q
0#R
0#T
1#V
#74000
0!
#74500
1!
1-
1/
11
04
1?
1a
1c
0f
1p
1!%
1!Y
1![
0!^
1!i
1!k
1!m
0!p
1"Z
1#@
1#B
0#E
1#Q
1#S
0#V
#75000
0!
#75500
1!
0-
0.
01
13
0?
0`
0c
1e
0p
0!%
0!X
0![
1!]
0!i
0!j
0!m
1!o
0"Z
0#?
0#B
1#D
0#P
0#S
1#U
#76000
0!
#76500
1!
1-
0/
11
14
15
1?
0a
1c
1f
1g
1p
1!%
0!Y
1![
1!^
1!_
1!i
0!k
1!m
1!p
1!q
1"Z
0#@
1#B
1#E
1#F
0#Q
1#S
1#V
1#W
#77000
0!
