firmware_builds/systems/system_20260427_testplanphase5/captures/pipe_sc_hub125_outvalid_scratch_20260424T1138.vcd
$comment
Copyright (C) 2018  Intel Corporation. All rights reserved.
Your use of Intel Corporation's design tools, logic functions 
and other software and tools, and its AMPP partner logic 
functions, and any output files from any of the foregoing 
(including device programming or simulation files), and any 
associated documentation or information are expressly subject 
to the terms and conditions of the Intel Program License 
Subscription Agreement, the Intel Quartus Prime License Agreement,
the Intel FPGA IP License Agreement, or other applicable license
agreement, including, without limitation, that your use is for
the sole purpose of programming logic devices manufactured by
Intel and sold by Intel or its authorized distributors.  Please
refer to the applicable agreement for further details.
$end

$date 
  04/24/2026 11:40:42 
$end
$version 
 QUARTUS_VCD_EXPORT 1.0 
$end
$timescale
  1 ps
$end
$scope module u_feb_system $end
$scope module u_qsys $end
$scope module control_path_subsystem $end
$scope module mm_interconnect_2 $end
$var reg 1 ! sc_hub_hub_read $end
$var reg 1 " sc_hub_hub_write $end
$var reg 1 # sc_hub_hub_readdatavalid $end
$var reg 1 $ sc_hub_hub_waitrequest $end
$var reg 1 % sc_hub_hub_writeresponsevalid $end
$var reg 1 & sc_hub_hub_response[0] $end
$var reg 1 ' sc_hub_hub_response[1] $end
$upscope $end
$scope module sc_hub $end
$var reg 1 ( i_download_data[0] $end
$var reg 1 ) i_download_data[1] $end
$var reg 1 * i_download_data[2] $end
$var reg 1 + i_download_data[3] $end
$var reg 1 , i_download_data[4] $end
$var reg 1 - i_download_data[5] $end
$var reg 1 . i_download_data[6] $end
$var reg 1 / i_download_data[7] $end
$var reg 1 0 i_download_data[8] $end
$var reg 1 1 i_download_data[9] $end
$var reg 1 2 i_download_data[10] $end
$var reg 1 3 i_download_data[11] $end
$var reg 1 4 i_download_data[12] $end
$var reg 1 5 i_download_data[13] $end
$var reg 1 6 i_download_data[14] $end
$var reg 1 7 i_download_data[15] $end
$var reg 1 8 i_download_data[16] $end
$var reg 1 9 i_download_data[17] $end
$var reg 1 : i_download_data[18] $end
$var reg 1 ; i_download_data[19] $end
$var reg 1 < i_download_data[20] $end
$var reg 1 = i_download_data[21] $end
$var reg 1 > i_download_data[22] $end
$var reg 1 ? i_download_data[23] $end
$var reg 1 @ i_download_data[24] $end
$var reg 1 A i_download_data[25] $end
$var reg 1 B i_download_data[26] $end
$var reg 1 C i_download_data[27] $end
$var reg 1 D i_download_data[28] $end
$var reg 1 E i_download_data[29] $end
$var reg 1 F i_download_data[30] $end
$var reg 1 G i_download_data[31] $end
$var reg 1 H i_download_datak[0] $end
$var reg 1 I i_download_datak[1] $end
$var reg 1 J i_download_datak[2] $end
$var reg 1 K i_download_datak[3] $end
$var reg 1 L o_download_ready $end
$scope module pkt_rx_inst $end
$var reg 1 M o_download_ready $end
$var reg 1 N pkt_has_download_words_reg $end
$upscope $end
$upscope $end
$upscope $end
$upscope $end
$scope module u_sc_downlink_cdc $end
$var reg 1 O i_out_clk $end
$var reg 1 P i_out_ready $end
$var reg 1 Q fifo_rdreq $end
$var reg 1 R out_valid $end
$var reg 1 S out_data[0] $end
$var reg 1 T out_data[1] $end
$var reg 1 U out_data[2] $end
$var reg 1 V out_data[3] $end
$var reg 1 W out_data[4] $end
$var reg 1 X out_data[5] $end
$var reg 1 Y out_data[6] $end
$var reg 1 Z out_data[7] $end
$var reg 1 [ out_data[8] $end
$var reg 1 \ out_data[9] $end
$var reg 1 ] out_data[10] $end
$var reg 1 ^ out_data[11] $end
$var reg 1 _ out_data[12] $end
$var reg 1 ` out_data[13] $end
$var reg 1 a out_data[14] $end
$var reg 1 b out_data[15] $end
$var reg 1 c out_data[16] $end
$var reg 1 d out_data[17] $end
$var reg 1 e out_data[18] $end
$var reg 1 f out_data[19] $end
$var reg 1 g out_data[20] $end
$var reg 1 h out_data[21] $end
$var reg 1 i out_data[22] $end
$var reg 1 j out_data[23] $end
$var reg 1 k out_data[24] $end
$var reg 1 l out_data[25] $end
$var reg 1 m out_data[26] $end
$var reg 1 n out_data[27] $end
$var reg 1 o out_data[28] $end
$var reg 1 p out_data[29] $end
$var reg 1 q out_data[30] $end
$var reg 1 r out_data[31] $end
$var reg 1 s out_datak[0] $end
$var reg 1 t out_datak[1] $end
$var reg 1 u out_datak[2] $end
$var reg 1 v out_datak[3] $end
$upscope $end
$upscope $end
$enddefinitions $end
#0
$dumpvars
X!
X"
X#
X$
X%
X&
X'
X(
X)
X*
X+
X,
X-
X.
X/
X0
X1
X2
X3
X4
X5
X6
X7
X8
X9
X:
X;
X<
X=
X>
X?
X@
XA
XB
XC
XD
XE
XF
XG
XH
XI
XJ
XK
XL
XM
XN
0O
XP
XQ
XR
XS
XT
XU
XV
XW
XX
XY
XZ
X[
X\
X]
X^
X_
X`
Xa
Xb
Xc
Xd
Xe
Xf
Xg
Xh
Xi
Xj
Xk
Xl
Xm
Xn
Xo
Xp
Xq
Xr
Xs
Xt
Xu
Xv
$end
#500
$comment Sample 0 (Start/Trigger) $end
0!
0"
0#
0$
0%
0&
0'
0(
0)
0*
0+
0,
0-
0.
0/
00
01
02
03
04
05
06
07
08
09
0:
0;
0<
0=
0>
0?
0@
0A
0B
0C
0D
0E
0F
0G
0H
0I
0J
0K
1L
1M
0N
1O
1P
0Q
0R
0S
0T
0U
0V
0W
0X
0Y
0Z
0[
0\
0]
0^
0_
0`
0a
0b
0c
0d
0e
0f
0g
0h
0i
0j
0k
0l
0m
0n
0o
0p
0q
0r
0s
0t
0u
0v
#1000
0O
#1500
1O
#2000
0O
#2500
1O
#3000
0O
#3500
1O
#4000
0O
#4500
1O
#5000
0O
#5500
1O
#6000
0O
#6500
1O
#7000
0O
#7500
1O
#8000
0O
#8500
1O
#9000
0O
#9500
1O
#10000
0O
#10500
1O
#11000
0O
#11500
1O
#12000
0O
#12500
1O
#13000
0O
#13500
1O
#14000
0O
#14500
1O
#15000
0O
#15500
1O
#16000
0O
#16500
1O
#17000
0O
#17500
1O
#18000
0O
#18500
1O
#19000
0O
#19500
1O
#20000
0O
#20500
1O
#21000
0O
#21500
1O
#22000
0O
#22500
1O
#23000
0O
#23500
1O
#24000
0O
#24500
1O
#25000
0O
#25500
1O
#26000
0O
#26500
1O
#27000
0O
#27500
1O
#28000
0O
#28500
1O
#29000
0O
#29500
1O
#30000
0O
#30500
1O
#31000
0O
#31500
1O
#32000
0O
#32500
1O
#33000
0O
#33500
1O
#34000
0O
#34500
1O
#35000
0O
#35500
1O
#36000
0O
#36500
1O
#37000
0O
#37500
1O
#38000
0O
#38500
1O
#39000
0O
#39500
1O
#40000
0O
#40500
1O
#41000
0O
#41500
1O
#42000
0O
#42500
1O
#43000
0O
#43500
1O
#44000
0O
#44500
1O
#45000
0O
#45500
1O
#46000
0O
#46500
1O
#47000
0O
#47500
1O
#48000
0O
#48500
1O
#49000
0O
#49500
1O
#50000
0O
#50500
1O
#51000
0O
#51500
1O
#52000
0O
#52500
1O
#53000
0O
#53500
1O
#54000
0O
#54500
1O
#55000
0O
#55500
1O
#56000
0O
#56500
1O
#57000
0O
#57500
1O
#58000
0O
#58500
1O
#59000
0O
#59500
1O
#60000
0O
#60500
1O
#61000
0O
#61500
1O
#62000
0O
#62500
1O
#63000
0O
#63500
1O
1Q
#64000
0O
#64500
1*
1+
1,
1-
1/
11
1B
1C
1D
1H
1O
0Q
1R
1U
1V
1W
1X
1Z
1\
1m
1n
1o
1s
#65000
0O
#65500
0*
0+
0,
0-
0/
01
0B
0C
0D
0H
1O
1Q
0R
0U
0V
0W
0X
0Z
0\
0m
0n
0o
0s
#66000
0O
#66500
1(
1O
1R
1S
#67000
0O
#67500
0(
1*
1+
1,
1/
1H
1O
0Q
0S
1U
1V
1W
1Z
1s
#68000
0O
#68500
0*
0+
0,
0/
0H
1O
0R
0U
0V
0W
0Z
0s
