firmware_builds/systems/system_20260427_testplanphase5/tb/INT_fe_scifi_v3-2026-04-17/formal/rc/runctl_mgmt_host_rc_formal_cover/engine_0/trace3.vcd
$version Generated by Yosys-SMTBMC $end
$timescale 1ns $end
$var integer 32 t smt_step $end
$var event 1 ! smt_clock $end
$scope module runctl_mgmt_host_rc_formal_tb $end
$var wire 9 n0 asi_synclink_data $end
$var wire 3 n1 asi_synclink_error $end
$var wire 9 n2 aso_runctl_data $end
$var wire 1 n3 aso_runctl_ready $end
$var wire 1 n4 aso_runctl_valid $end
$var wire 36 n5 aso_upload_data $end
$var wire 1 n6 aso_upload_endofpacket $end
$var wire 1 n7 aso_upload_ready $end
$var wire 1 n8 aso_upload_startofpacket $end
$var wire 1 n9 aso_upload_valid $end
$var wire 1 n10 ct_hard_reset $end
$var wire 1 n11 dp_hard_reset $end
$scope module dut $end
$scope module _witness_ $end
$var wire 32 n12 anyseq_auto_setundef_cc_550_execute_3512 $end
$var wire 4 n13 anyseq_auto_setundef_cc_550_execute_3514 $end
$var wire 4 n14 anyseq_auto_setundef_cc_550_execute_3516 $end
$var wire 4 n15 anyseq_auto_setundef_cc_550_execute_3518 $end
$var wire 4 n16 anyseq_auto_setundef_cc_550_execute_3520 $end
$var wire 4 n17 anyseq_auto_setundef_cc_550_execute_3522 $end
$var wire 4 n18 anyseq_auto_setundef_cc_550_execute_3524 $end
$var wire 4 n19 anyseq_auto_setundef_cc_550_execute_3526 $end
$var wire 1 n20 anyseq_auto_setundef_cc_550_execute_3528 $end
$var wire 1 n21 anyseq_auto_setundef_cc_550_execute_3530 $end
$var wire 1 n22 anyseq_auto_setundef_cc_550_execute_3532 $end
$var wire 1 n23 anyseq_auto_setundef_cc_550_execute_3534 $end
$var wire 1 n24 anyseq_auto_setundef_cc_550_execute_3536 $end
$var wire 1 n25 anyseq_auto_setundef_cc_550_execute_3538 $end
$var wire 1 n26 anyseq_auto_setundef_cc_550_execute_3540 $end
$var wire 1 n27 anyseq_auto_setundef_cc_550_execute_3542 $end
$var wire 1 n28 anyseq_auto_setundef_cc_550_execute_3544 $end
$upscope $end
$var wire 9 n29 asi_synclink_data $end
$var wire 3 n30 asi_synclink_error $end
$var wire 9 n31 aso_runctl_data $end
$var wire 1 n32 aso_runctl_ready $end
$var wire 1 n33 aso_runctl_valid $end
$var wire 36 n34 aso_upload_data $end
$var wire 1 n35 aso_upload_endofpacket $end
$var wire 1 n36 aso_upload_ready $end
$var wire 1 n37 aso_upload_startofpacket $end
$var wire 1 n38 aso_upload_valid $end
$var wire 5 n39 avs_csr_address $end
$var wire 1 n40 avs_csr_read $end
$var wire 32 n41 avs_csr_readdata $end
$var wire 1 n42 avs_csr_waitrequest $end
$var wire 1 n43 avs_csr_write $end
$var wire 32 n44 avs_csr_writedata $end
$var wire 32 n45 csr_scratch $end
$var wire 2 n46 csr_state $end
$var wire 1 n47 ct_hard_reset $end
$var wire 1 n48 ct_hard_reset_q $end
$var wire 1 n49 ct_hard_reset_raw $end
$var wire 2 n50 ct_hreset_sync $end
$var wire 1 n51 dp_hard_reset $end
$var wire 1 n52 dp_hard_reset_q $end
$var wire 1 n53 dp_hard_reset_raw $end
$var wire 2 n54 dp_hreset_sync $end
$var wire 1 n55 ev_cmd_accepted $end
$var wire 1 n56 ev_rx_error $end
$var wire 1 n57 ext_hard_reset $end
$var wire 1 n58 ext_hard_reset_q $end
$scope module gray_to_bin32$func$/home/yifeng/packages/mu3e_ip_dev/mu3e-ip-cores/run-control_mgmt/rtl/runctl_mgmt_host $end
$scope module \sv:846$12 $end
$var wire 32 n59 \$result $end
$upscope $end
$scope module \sv:847$13 $end
$var wire 32 n60 \$result $end
$upscope $end
$upscope $end
$var wire 48 n61 gts_counter $end
$var wire 48 n62 gts_gray_lvds $end
$var wire 48 n63 gts_gray_mm_ff0 $end
$var wire 48 n64 gts_gray_mm_ff1 $end
$var wire 32 n65 gts_h_shadow $end
$var wire 48 n66 gts_mm_binary $end
$var wire 48 n67 host_exec_ts $end
$var wire 32 n68 host_exec_ts_lo $end
$var wire 1 n69 host_idle_lvds $end
$var wire 2 n70 host_idle_sync $end
$var wire 8 n71 host_state $end
$var wire 8 n72 host_state_lvds $end
$var wire 8 n73 host_state_sync_q0 $end
$var wire 8 n74 host_state_sync_q1 $end
$var wire 1 n75 local_cmd_ack_lvds $end
$var wire 2 n76 local_cmd_ack_mm_sync $end
$var wire 1 n77 local_cmd_busy_mm $end
$var wire 1 n78 local_cmd_consume_lvds $end
$var wire 1 n79 local_cmd_pending_lvds $end
$var wire 1 n80 local_cmd_req_lvds_seen $end
$var wire 2 n81 local_cmd_req_lvds_sync $end
$var wire 1 n82 local_cmd_req_mm $end
$var wire 32 n83 local_cmd_word_lvds $end
$var wire 32 n84 local_cmd_word_lvds_sync_q0 $end
$var wire 32 n85 local_cmd_word_lvds_sync_q1 $end
$var wire 32 n86 local_cmd_word_mm $end
$var wire 128 n87 log_fifo_data $end
$var wire 32 n88 log_fifo_q $end
$var wire 1 n89 log_fifo_rdempty $end
$var wire 1 n90 log_fifo_rdfull $end
$var wire 1 n91 log_fifo_rdreq $end
$var wire 10 n92 log_fifo_rdusedw $end
$var wire 1 n93 log_fifo_wrempty $end
$var wire 1 n94 log_fifo_wrfull $end
$var wire 1 n95 log_fifo_wrreq $end
$var wire 8 n96 log_fifo_wrusedw $end
$var wire 1 n97 lvds_fsm_rst $end
$var wire 1 n98 lvdspll_clk $end
$var wire 1 n99 lvdspll_reset $end
$var wire 2 n100 meta_page $end
$var wire 32 n101 meta_readdata $end
$var wire 1 n102 mm_clk $end
$var wire 1 n103 mm_reset $end
$var wire 1 n104 pipe_r2h_done $end
$var wire 1 n105 pipe_r2h_start $end
$var wire 16 n106 recv_fpga_address $end
$var wire 1 n107 recv_idle_lvds $end
$var wire 2 n108 recv_idle_sync $end
$var wire 32 n109 recv_payload32 $end
$var wire 4 n110 recv_payload_cnt $end
$var wire 4 n111 recv_payload_len $end
$var wire 16 n112 recv_reset_assert_mask $end
$var wire 16 n113 recv_reset_release_mask $end
$var wire 8 n114 recv_run_command $end
$var wire 32 n115 recv_run_number $end
$var wire 8 n116 recv_state $end
$var wire 8 n117 recv_state_lvds $end
$var wire 8 n118 recv_state_sync_q0 $end
$var wire 8 n119 recv_state_sync_q1 $end
$var wire 48 n120 recv_timestamp $end
$var wire 1 n121 rst_mask_ct_lvds $end
$var wire 2 n122 rst_mask_ct_lvds_sync $end
$var wire 1 n123 rst_mask_ct_mm $end
$var wire 1 n124 rst_mask_dp_lvds $end
$var wire 2 n125 rst_mask_dp_lvds_sync $end
$var wire 1 n126 rst_mask_dp_mm $end
$var wire 32 n127 rx_cmd_count_lvds $end
$var wire 32 n128 rx_cmd_count_mm $end
$var wire 32 n129 rx_cmd_gray_ff0 $end
$var wire 32 n130 rx_cmd_gray_ff1 $end
$var wire 32 n131 rx_cmd_gray_lvds $end
$var wire 32 n132 rx_err_count_lvds $end
$var wire 32 n133 rx_err_count_mm $end
$var wire 32 n134 rx_err_gray_ff0 $end
$var wire 32 n135 rx_err_gray_ff1 $end
$var wire 32 n136 rx_err_gray_lvds $end
$var wire 48 n137 shadow_exec_ts $end
$var wire 16 n138 shadow_fpga_addr $end
$var wire 1 n139 shadow_fpga_addr_valid $end
$var wire 8 n140 shadow_last_cmd $end
$var wire 48 n141 shadow_recv_ts $end
$var wire 16 n142 shadow_reset_assert $end
$var wire 16 n143 shadow_reset_release $end
$var wire 32 n144 shadow_run_number $end
$var wire 48 n145 snap_exec_ts_lvds $end
$var wire 16 n146 snap_fpga_addr_lvds $end
$var wire 1 n147 snap_fpga_addr_valid_lvds $end
$var wire 8 n148 snap_last_cmd_lvds $end
$var wire 48 n149 snap_recv_ts_lvds $end
$var wire 16 n150 snap_reset_assert_lvds $end
$var wire 16 n151 snap_reset_release_lvds $end
$var wire 32 n152 snap_run_number_lvds $end
$var wire 1 n153 snap_update_lvds $end
$var wire 1 n154 snap_update_mm_seen $end
$var wire 2 n155 snap_update_mm_sync $end
$var wire 1 n156 soft_reset_pulse_lvds $end
$var wire 1 n157 soft_reset_req_lvds_seen $end
$var wire 2 n158 soft_reset_req_lvds_sync $end
$var wire 1 n159 soft_reset_req_mm $end
$scope module u_log_fifo $end
$var wire 128 n160 data $end
$var wire 32 n161 q $end
$var wire 1 n162 rdclk $end
$var wire 1 n163 rdempty $end
$var wire 1 n164 rdfull $end
$var wire 1 n165 rdreq $end
$var wire 10 n166 rdusedw $end
$var wire 1 n167 wrclk $end
$var wire 1 n168 wrempty $end
$var wire 1 n169 wrfull $end
$var wire 1 n170 wrreq $end
$var wire 8 n171 wrusedw $end
$upscope $end
$var wire 8 n172 upload_state $end
$upscope $end
$var wire 3 n173 error_code $end
$var wire 1 n174 ext_hard_reset $end
$var wire 6 n175 f_cycle $end
$var wire 1 n176 f_past_valid $end
$var wire 2 n177 f_reset_sr $end
$var wire 1 n178 gclk $end
$var wire 8 n179 kchar_byte $end
$var wire 8 n180 noack_cmd $end
$var wire 32 n181 prepare_run_number $end
$var wire 1 n182 rst $end
$var wire 1 n183 runctl_fire $end
$var wire 4 n184 runctl_stall_ctr $end
$var wire 3 n185 stim_kind $end
$var wire 1 n186 upload_fire $end
$var wire 4 n187 upload_stall_ctr $end
$upscope $end
$enddefinitions $end
#0
1!
b00000000000000000000000000000000 t
b1 n98
b1 n102
b1 n178
b110111100 n0
b000 n1
b000000000 n2
b1 n3
b0 n4
b000000000000000000000000000000000000 n5
b1 n6
b1 n7
b0 n8
b0 n9
b1 n10
b1 n11
b00000000000000000000000000000000 n12
b0000 n13
b0000 n14
b0000 n15
b0100 n16
b0000 n17
b0100 n18
b0000 n19
b0 n20
b0 n21
b1 n22
b0 n23
b0 n24
b0 n25
b0 n26
b0 n27
b0 n28
b110111100 n29
b000 n30
b000000000 n31
b1 n32
b0 n33
b000000000000000000000000000000000000 n34
b1 n35
b1 n36
b0 n37
b0 n38
b00000 n39
b0 n40
b00000000000000000000000000000000 n41
b1 n42
b0 n43
b00000000000000000000000000000000 n44
b00000000000000000000000000000000 n45
b00 n46
b1 n47
b1 n48
b1 n49
b00 n50
b1 n51
b1 n52
b1 n53
b00 n54
b0 n55
b0 n56
b0 n57
b0 n58
b00000000000000000000000000000000 n59
b00000000000000000000000000000000 n60
b000000000000000000000000000000000000000000000000 n61
b000000000000000000000000000000000000000000000000 n62
b000000000000000000000000000000000000000000000000 n63
b000000000000000000000000000000000000000000000000 n64
b00000000000000000000000000000000 n65
b000000000000000000000000000000000000000000000000 n66
b000000000000000000000000000000000000000000000000 n67
b00000000000000000000000000000000 n68
b1 n69
b00 n70
b00000000 n71
b00000000 n72
b00000000 n73
b00000000 n74
b0 n75
b00 n76
b0 n77
b0 n78
b0 n79
b0 n80
b00 n81
b0 n82
b00000000000000000000000000000000 n83
b00000000000000000000000000000000 n84
b00000000000000000000000000000000 n85
b00000000000000000000000000000000 n86
b00000000000000000000000000000000000000000000000000000000000000000000000000000000000000000000000000000000000000000000000000000000 n87
b00000000000000000000000000000000 n88
b1 n89
b0 n90
b1 n91
b0000000000 n92
b1 n93
b0 n94
b1 n95
b00000000 n96
b1 n97
b1 n99
b00 n100
b00011010000000100000010000010110 n101
b1 n103
b0 n104
b0 n105
b0000000000000000 n106
b0 n107
b00 n108
b00000000000000000000000000000000 n109
b0000 n110
b0000 n111
b0000000000000000 n112
b0000000000000000 n113
b00010010 n114
b00000000000000000000000000000000 n115
b00000010 n116
b00000010 n117
b00000000 n118
b00000000 n119
b000000000000000000000000000000000000000000000000 n120
b0 n121
b00 n122
b0 n123
b0 n124
b00 n125
b0 n126
b00000000000000000000000000000000 n127
b00000000000000000000000000000000 n128
b00000000000000000000000000000000 n129
b00000000000000000000000000000000 n130
b00000000000000000000000000000000 n131
b00000000000000000000000000000000 n132
b00000000000000000000000000000000 n133
b00000000000000000000000000000000 n134
b00000000000000000000000000000000 n135
b00000000000000000000000000000000 n136
b000000000000000000000000000000000000000000000000 n137
b0000000000000000 n138
b0 n139
b00000000 n140
b000000000000000000000000000000000000000000000000 n141
b0000000000000000 n142
b0000000000000000 n143
b00000000000000000000000000000000 n144
b000000000000000000000000000000000000000000000000 n145
b0000000000000000 n146
b0 n147
b00000000 n148
b000000000000000000000000000000000000000000000000 n149
b0000000000000000 n150
b0000000000000000 n151
b00000000000000000000000000000000 n152
b0 n153
b0 n154
b00 n155
b0 n156
b0 n157
b00 n158
b0 n159
b00000000000000000000000000000000000000000000000000000000000000000000000000000000000000000000000000000000000000000000000000000000 n160
b00000000000000000000000000000000 n161
b0 n162
b1 n163
b0 n164
b1 n165
b0000000000 n166
b0 n167
b1 n168
b0 n169
b1 n170
b00000000 n171
b00000000 n172
b100 n173
b0 n174
b000000 n175
b0 n176
b11 n177
b00111100 n179
b00010010 n180
b00000000000000000000000000000000 n181
b1 n182
b0 n183
b0000 n184
b000 n185
b0 n186
b0000 n187
#5
b0 n98
b0 n102
b0 n178
#10
1!
b00000000000000000000000000000001 t
b1 n98
b1 n102
b1 n178
b110111100 n0
b000 n1
b000000000 n2
b1 n3
b0 n4
b000000000000000000000000000000000000 n5
b0 n6
b1 n7
b0 n8
b0 n9
b0 n10
b0 n11
b00000000000000000000000000000000 n12
b0000 n13
b0000 n14
b0000 n15
b0100 n16
b0000 n17
b0100 n18
b0000 n19
b0 n20
b0 n21
b1 n22
b0 n23
b0 n24
b0 n25
b0 n26
b0 n27
b0 n28
b110111100 n29
b000 n30
b000000000 n31
b1 n32
b0 n33
b000000000000000000000000000000000000 n34
b0 n35
b1 n36
b0 n37
b0 n38
b00000 n39
b0 n40
b00000000000000000000000000000000 n41
b1 n42
b0 n43
b00000000000000000000000000000000 n44
b00000000000000000000000000000000 n45
b00 n46
b0 n47
b0 n48
b0 n49
b00 n50
b0 n51
b0 n52
b0 n53
b00 n54
b0 n55
b0 n56
b0 n57
b0 n58
b00000000000000000000000000000000 n59
b00000000000000000000000000000000 n60
b000000000000000000000000000000000000000000000000 n61
b000000000000000000000000000000000000000000000000 n62
b000000000000000000000000000000000000000000000000 n63
b000000000000000000000000000000000000000000000000 n64
b00000000000000000000000000000000 n65
b000000000000000000000000000000000000000000000000 n66
b000000000000000000000000000000000000000000000000 n67
b00000000000000000000000000000000 n68
b1 n69
b00 n70
b00000000 n71
b00000000 n72
b00000000 n73
b00000000 n74
b0 n75
b00 n76
b0 n77
b0 n78
b0 n79
b0 n80
b00 n81
b0 n82
b00000000000000000000000000000000 n83
b00000000000000000000000000000000 n84
b00000000000000000000000000000000 n85
b00000000000000000000000000000000 n86
b00000000000000000000000000000000000000000000000000000000000000000000000000000000000000000000000000000000000000000000000000000000 n87
b00000000000000000000000000000000 n88
b1 n89
b0 n90
b0 n91
b0000000000 n92
b1 n93
b0 n94
b0 n95
b00000000 n96
b1 n97
b1 n99
b00 n100
b00011010000000100000010000010110 n101
b1 n103
b0 n104
b0 n105
b0000000000000000 n106
b1 n107
b00 n108
b00000000000000000000000000000000 n109
b0000 n110
b0000 n111
b0000000000000000 n112
b0000000000000000 n113
b00000000 n114
b00000000000000000000000000000000 n115
b00000000 n116
b00000000 n117
b00000000 n118
b00000000 n119
b000000000000000000000000000000000000000000000000 n120
b0 n121
b00 n122
b0 n123
b0 n124
b00 n125
b0 n126
b00000000000000000000000000000000 n127
b00000000000000000000000000000000 n128
b00000000000000000000000000000000 n129
b00000000000000000000000000000000 n130
b00000000000000000000000000000000 n131
b00000000000000000000000000000000 n132
b00000000000000000000000000000000 n133
b00000000000000000000000000000000 n134
b00000000000000000000000000000000 n135
b00000000000000000000000000000000 n136
b000000000000000000000000000000000000000000000000 n137
b0000000000000000 n138
b0 n139
b00000000 n140
b000000000000000000000000000000000000000000000000 n141
b0000000000000000 n142
b0000000000000000 n143
b00000000000000000000000000000000 n144
b000000000000000000000000000000000000000000000000 n145
b0000000000000000 n146
b0 n147
b00000000 n148
b000000000000000000000000000000000000000000000000 n149
b0000000000000000 n150
b0000000000000000 n151
b00000000000000000000000000000000 n152
b0 n153
b0 n154
b00 n155
b0 n156
b0 n157
b00 n158
b0 n159
b00000000000000000000000000000000000000000000000000000000000000000000000000000000000000000000000000000000000000000000000000000000 n160
b00000000000000000000000000000000 n161
b0 n162
b1 n163
b0 n164
b0 n165
b0000000000 n166
b0 n167
b1 n168
b0 n169
b0 n170
b00000000 n171
b00000000 n172
b100 n173
b0 n174
b000000 n175
b1 n176
b10 n177
b00111100 n179
b00010010 n180
b00000000000000000000000000000000 n181
b1 n182
b0 n183
b0000 n184
b000 n185
b0 n186
b0000 n187
#15
b0 n98
b0 n102
b0 n178
#20
1!
b00000000000000000000000000000010 t
b1 n98
b1 n102
b1 n178
b000010010 n0
b000 n1
b000000000 n2
b1 n3
b0 n4
b000000000000000000000000000000000000 n5
b0 n6
b1 n7
b0 n8
b0 n9
b0 n10
b0 n11
b00000000000000000000000000000000 n12
b0000 n13
b0100 n14
b0000 n15
b0100 n16
b0000 n17
b0100 n18
b0000 n19
b1 n20
b0 n21
b1 n22
b0 n23
b0 n24
b0 n25
b0 n26
b0 n27
b0 n28
b000010010 n29
b000 n30
b000000000 n31
b1 n32
b0 n33
b000000000000000000000000000000000000 n34
b0 n35
b1 n36
b0 n37
b0 n38
b00000 n39
b0 n40
b00000000000000000000000000000000 n41
b1 n42
b0 n43
b00000000000000000000000000000000 n44
b00000000000000000000000000000000 n45
b00 n46
b0 n47
b0 n48
b0 n49
b00 n50
b0 n51
b0 n52
b0 n53
b00 n54
b0 n55
b0 n56
b0 n57
b0 n58
b00000000000000000000000000000000 n59
b00000000000000000000000000000000 n60
b000000000000000000000000000000000000000000000000 n61
b000000000000000000000000000000000000000000000000 n62
b000000000000000000000000000000000000000000000000 n63
b000000000000000000000000000000000000000000000000 n64
b00000000000000000000000000000000 n65
b000000000000000000000000000000000000000000000000 n66
b000000000000000000000000000000000000000000000000 n67
b00000000000000000000000000000000 n68
b1 n69
b00 n70
b00000000 n71
b00000000 n72
b00000000 n73
b00000000 n74
b0 n75
b00 n76
b0 n77
b0 n78
b0 n79
b0 n80
b00 n81
b0 n82
b00000000000000000000000000000000 n83
b00000000000000000000000000000000 n84
b00000000000000000000000000000000 n85
b00000000000000000000000000000000 n86
b00000000000000000000000000000000000000000000000000000000000000000000000000000000000000000000000000000000000000000000000000000000 n87
b00000000000000000000000000000000 n88
b1 n89
b0 n90
b0 n91
b0000000000 n92
b1 n93
b0 n94
b0 n95
b00000000 n96
b0 n97
b0 n99
b00 n100
b00011010000000100000010000010110 n101
b0 n103
b0 n104
b0 n105
b0000000000000000 n106
b1 n107
b00 n108
b00000000000000000000000000000000 n109
b0000 n110
b0000 n111
b0000000000000000 n112
b0000000000000000 n113
b00000000 n114
b00000000000000000000000000000000 n115
b00000000 n116
b00000000 n117
b00000000 n118
b00000000 n119
b000000000000000000000000000000000000000000000000 n120
b0 n121
b00 n122
b0 n123
b0 n124
b00 n125
b0 n126
b00000000000000000000000000000000 n127
b00000000000000000000000000000000 n128
b00000000000000000000000000000000 n129
b00000000000000000000000000000000 n130
b00000000000000000000000000000000 n131
b00000000000000000000000000000000 n132
b00000000000000000000000000000000 n133
b00000000000000000000000000000000 n134
b00000000000000000000000000000000 n135
b00000000000000000000000000000000 n136
b000000000000000000000000000000000000000000000000 n137
b0000000000000000 n138
b0 n139
b00000000 n140
b000000000000000000000000000000000000000000000000 n141
b0000000000000000 n142
b0000000000000000 n143
b00000000000000000000000000000000 n144
b000000000000000000000000000000000000000000000000 n145
b0000000000000000 n146
b0 n147
b00000000 n148
b000000000000000000000000000000000000000000000000 n149
b0000000000000000 n150
b0000000000000000 n151
b00000000000000000000000000000000 n152
b0 n153
b0 n154
b00 n155
b0 n156
b0 n157
b00 n158
b0 n159
b00000000000000000000000000000000000000000000000000000000000000000000000000000000000000000000000000000000000000000000000000000000 n160
b00000000000000000000000000000000 n161
b0 n162
b1 n163
b0 n164
b0 n165
b0000000000 n166
b0 n167
b1 n168
b0 n169
b0 n170
b00000000 n171
b00000000 n172
b100 n173
b0 n174
b000000 n175
b1 n176
b00 n177
b00111100 n179
b00010010 n180
b00000000000000000000000000000000 n181
b0 n182
b0 n183
b0000 n184
b000 n185
b0 n186
b0000 n187
#25
b0 n98
b0 n102
b0 n178
#30
1!
b00000000000000000000000000000011 t
b1 n98
b1 n102
b1 n178
b110111100 n0
b000 n1
b000000000 n2
b1 n3
b0 n4
b000000000000000000000000000000000000 n5
b0 n6
b1 n7
b0 n8
b0 n9
b0 n10
b0 n11
b00000000000000000000000000000000 n12
b0000 n13
b0000 n14
b0000 n15
b0100 n16
b0000 n17
b0100 n18
b0000 n19
b0 n20
b0 n21
b1 n22
b0 n23
b0 n24
b0 n25
b0 n26
b0 n27
b0 n28
b110111100 n29
b000 n30
b000000000 n31
b1 n32
b0 n33
b000000000000000000000000000000000000 n34
b0 n35
b1 n36
b0 n37
b0 n38
b00000 n39
b0 n40
b00000000000000000000000000000000 n41
b1 n42
b0 n43
b00000000000000000000000000000000 n44
b00000000000000000000000000000000 n45
b00 n46
b0 n47
b0 n48
b0 n49
b00 n50
b0 n51
b0 n52
b0 n53
b00 n54
b0 n55
b0 n56
b0 n57
b0 n58
b00000000000000000000000000000000 n59
b00000000000000000000000000000000 n60
b000000000000000000000000000000000000000000000001 n61
b000000000000000000000000000000000000000000000000 n62
b000000000000000000000000000000000000000000000000 n63
b000000000000000000000000000000000000000000000000 n64
b00000000000000000000000000000000 n65
b000000000000000000000000000000000000000000000000 n66
b000000000000000000000000000000000000000000000000 n67
b00000000000000000000000000000000 n68
b1 n69
b01 n70
b00000000 n71
b00000000 n72
b00000000 n73
b00000000 n74
b0 n75
b00 n76
b0 n77
b0 n78
b0 n79
b0 n80
b00 n81
b0 n82
b00000000000000000000000000000000 n83
b00000000000000000000000000000000 n84
b00000000000000000000000000000000 n85
b00000000000000000000000000000000 n86
b00000000000000000000000000000000000000000000000000000000000000000000000000000000000000000000000000000000000000000000000000000000 n87
b00000000000000000000000000000000 n88
b1 n89
b0 n90
b0 n91
b0000000000 n92
b1 n93
b0 n94
b0 n95
b00000000 n96
b0 n97
b0 n99
b00 n100
b00011010000000100000010000010110 n101
b0 n103
b0 n104
b0 n105
b0000000000000000 n106
b0 n107
b01 n108
b00000000000000000000000000000000 n109
b0000 n110
b0000 n111
b0000000000000000 n112
b0000000000000000 n113
b00010010 n114
b00000000000000000000000000000000 n115
b00000010 n116
b00000010 n117
b00000000 n118
b00000000 n119
b000000000000000000000000000000000000000000000000 n120
b0 n121
b00 n122
b0 n123
b0 n124
b00 n125
b0 n126
b00000000000000000000000000000000 n127
b00000000000000000000000000000000 n128
b00000000000000000000000000000000 n129
b00000000000000000000000000000000 n130
b00000000000000000000000000000000 n131
b00000000000000000000000000000000 n132
b00000000000000000000000000000000 n133
b00000000000000000000000000000000 n134
b00000000000000000000000000000000 n135
b00000000000000000000000000000000 n136
b000000000000000000000000000000000000000000000000 n137
b0000000000000000 n138
b0 n139
b00000000 n140
b000000000000000000000000000000000000000000000000 n141
b0000000000000000 n142
b0000000000000000 n143
b00000000000000000000000000000000 n144
b000000000000000000000000000000000000000000000000 n145
b0000000000000000 n146
b0 n147
b00000000 n148
b000000000000000000000000000000000000000000000000 n149
b0000000000000000 n150
b0000000000000000 n151
b00000000000000000000000000000000 n152
b0 n153
b0 n154
b00 n155
b0 n156
b0 n157
b00 n158
b0 n159
b00000000000000000000000000000000000000000000000000000000000000000000000000000000000000000000000000000000000000000000000000000000 n160
b00000000000000000000000000000000 n161
b0 n162
b1 n163
b0 n164
b0 n165
b0000000000 n166
b0 n167
b1 n168
b0 n169
b0 n170
b00000000 n171
b00000000 n172
b100 n173
b0 n174
b000001 n175
b1 n176
b00 n177
b00111100 n179
b00010010 n180
b00000000000000000000000000000000 n181
b0 n182
b0 n183
b0000 n184
b000 n185
b0 n186
b0000 n187
#35
b0 n98
b0 n102
b0 n178
#40
1!
b00000000000000000000000000000100 t
b1 n98
b1 n102
b1 n178
b110111100 n0
b000 n1
b000000000 n2
b1 n3
b0 n4
b000000000000000000000000000000000000 n5
b0 n6
b1 n7
b0 n8
b0 n9
b0 n10
b0 n11
b00000000000000000000000000000000 n12
b0000 n13
b0000 n14
b0000 n15
b0100 n16
b0000 n17
b0001 n18
b0000 n19
b0 n20
b0 n21
b1 n22
b0 n23
b1 n24
b0 n25
b0 n26
b0 n27
b0 n28
b110111100 n29
b000 n30
b000000000 n31
b1 n32
b0 n33
b000000000000000000000000000000000000 n34
b0 n35
b1 n36
b0 n37
b0 n38
b00000 n39
b0 n40
b00000000000000000000000000000000 n41
b1 n42
b0 n43
b00000000000000000000000000000000 n44
b00000000000000000000000000000000 n45
b00 n46
b0 n47
b0 n48
b0 n49
b00 n50
b0 n51
b0 n52
b0 n53
b00 n54
b0 n55
b0 n56
b0 n57
b0 n58
b00000000000000000000000000000000 n59
b00000000000000000000000000000000 n60
b000000000000000000000000000000000000000000000010 n61
b000000000000000000000000000000000000000000000001 n62
b000000000000000000000000000000000000000000000000 n63
b000000000000000000000000000000000000000000000000 n64
b00000000000000000000000000000000 n65
b000000000000000000000000000000000000000000000000 n66
b000000000000000000000000000000000000000000000000 n67
b00000000000000000000000000000000 n68
b1 n69
b11 n70
b00000000 n71
b00000000 n72
b00000000 n73
b00000000 n74
b0 n75
b00 n76
b0 n77
b0 n78
b0 n79
b0 n80
b00 n81
b0 n82
b00000000000000000000000000000000 n83
b00000000000000000000000000000000 n84
b00000000000000000000000000000000 n85
b00000000000000000000000000000000 n86
b00000000000000000000000000000000000000000000000000000000000000000000000000000000000000000000000000000000000000000000000000000000 n87
b00000000000000000000000000000000 n88
b1 n89
b0 n90
b0 n91
b0000000000 n92
b1 n93
b0 n94
b0 n95
b00000000 n96
b0 n97
b0 n99
b00 n100
b00011010000000100000010000010110 n101
b0 n103
b0 n104
b1 n105
b0000000000000000 n106
b0 n107
b10 n108
b00000000000000000000000000000000 n109
b0000 n110
b0000 n111
b0000000000000000 n112
b0000000000000000 n113
b00010010 n114
b00000000000000000000000000000000 n115
b00000010 n116
b00000010 n117
b00000010 n118
b00000000 n119
b000000000000000000000000000000000000000000000000 n120
b0 n121
b00 n122
b0 n123
b0 n124
b00 n125
b0 n126
b00000000000000000000000000000000 n127
b00000000000000000000000000000000 n128
b00000000000000000000000000000000 n129
b00000000000000000000000000000000 n130
b00000000000000000000000000000000 n131
b00000000000000000000000000000000 n132
b00000000000000000000000000000000 n133
b00000000000000000000000000000000 n134
b00000000000000000000000000000000 n135
b00000000000000000000000000000000 n136
b000000000000000000000000000000000000000000000000 n137
b0000000000000000 n138
b0 n139
b00000000 n140
b000000000000000000000000000000000000000000000000 n141
b0000000000000000 n142
b0000000000000000 n143
b00000000000000000000000000000000 n144
b000000000000000000000000000000000000000000000000 n145
b0000000000000000 n146
b0 n147
b00000000 n148
b000000000000000000000000000000000000000000000000 n149
b0000000000000000 n150
b0000000000000000 n151
b00000000000000000000000000000000 n152
b0 n153
b0 n154
b00 n155
b0 n156
b0 n157
b00 n158
b0 n159
b00000000000000000000000000000000000000000000000000000000000000000000000000000000000000000000000000000000000000000000000000000000 n160
b00000000000000000000000000000000 n161
b0 n162
b1 n163
b0 n164
b0 n165
b0000000000 n166
b0 n167
b1 n168
b0 n169
b0 n170
b00000000 n171
b00000000 n172
b100 n173
b0 n174
b000010 n175
b1 n176
b00 n177
b00111100 n179
b00010010 n180
b00000000000000000000000000000000 n181
b0 n182
b0 n183
b0000 n184
b000 n185
b0 n186
b0000 n187
#45
b0 n98
b0 n102
b0 n178
