firmware_builds/systems/system_20260427_testplanphase5/tb/INT_fe_scifi_v3-2026-04-17/formal/rc/upload_pkt_mux_formal_cover/engine_0/trace4.vcd
$version Generated by Yosys-SMTBMC $end
$timescale 1ns $end
$var integer 32 t smt_step $end
$var event 1 ! smt_clock $end
$scope module upload_pkt_mux_formal_tb $end
$scope module dut $end
$scope module _witness_ $end
$var wire 1 n0 anyinit_procdff_1134 $end
$upscope $end
$var wire 1 n1 clk $end
$var wire 2 n2 decision $end
$var wire 36 n3 in0_data $end
$var wire 1 n4 in0_endofpacket $end
$var wire 38 n5 in0_payload $end
$var wire 1 n6 in0_ready $end
$var wire 1 n7 in0_startofpacket $end
$var wire 1 n8 in0_valid $end
$var wire 36 n9 in1_data $end
$var wire 1 n10 in1_endofpacket $end
$var wire 38 n11 in1_payload $end
$var wire 1 n12 in1_ready $end
$var wire 1 n13 in1_startofpacket $end
$var wire 1 n14 in1_valid $end
$var wire 36 n15 in2_data $end
$var wire 1 n16 in2_endofpacket $end
$var wire 38 n17 in2_payload $end
$var wire 1 n18 in2_ready $end
$var wire 1 n19 in2_startofpacket $end
$var wire 1 n20 in2_valid $end
$var wire 2 n21 out_channel $end
$var wire 36 n22 out_data $end
$var wire 1 n23 out_endofpacket $end
$var wire 38 n24 out_payload $end
$var wire 1 n25 out_ready $end
$var wire 2 n26 out_select $end
$var wire 1 n27 out_startofpacket $end
$var wire 1 n28 out_valid $end
$var wire 1 n29 out_valid_wire $end
$scope module outpipe $end
$scope module _witness_ $end
$var wire 1 n30 anyinit_procdff_1114 $end
$var wire 40 n31 anyinit_procdff_1119 $end
$upscope $end
$var wire 1 n32 clk $end
$var wire 40 n33 in_payload $end
$var wire 1 n34 in_ready $end
$var wire 1 n35 in_valid $end
$var wire 40 n36 out_payload $end
$var wire 1 n37 out_ready $end
$var wire 1 n38 out_valid $end
$var wire 1 n39 reset_n $end
$upscope $end
$var wire 1 n40 packet_in_progress $end
$var wire 1 n41 reset_n $end
$var wire 2 n42 select $end
$var wire 1 n43 selected_endofpacket $end
$var wire 38 n44 selected_payload $end
$var wire 1 n45 selected_ready $end
$var wire 1 n46 selected_valid $end
$upscope $end
$var wire 6 n47 f_cycle $end
$var wire 1 n48 f_past_valid $end
$var wire 2 n49 f_reset_sr $end
$var wire 1 n50 frame_in_progress $end
$var wire 1 n51 gclk $end
$var wire 34 n52 in0_data $end
$var wire 1 n53 in0_endofpacket $end
$var wire 1 n54 in0_fire $end
$var wire 1 n55 in0_ready $end
$var wire 1 n56 in0_startofpacket $end
$var wire 1 n57 in0_valid $end
$var wire 34 n58 in1_data $end
$var wire 1 n59 in1_endofpacket $end
$var wire 1 n60 in1_fire $end
$var wire 1 n61 in1_ready $end
$var wire 1 n62 in1_startofpacket $end
$var wire 1 n63 in1_valid $end
$var wire 34 n64 in2_data $end
$var wire 1 n65 in2_endofpacket $end
$var wire 1 n66 in2_fire $end
$var wire 1 n67 in2_ready $end
$var wire 1 n68 in2_startofpacket $end
$var wire 1 n69 in2_valid $end
$var wire 1 n70 long0 $end
$var wire 1 n71 long1 $end
$var wire 1 n72 long2 $end
$var wire 2 n73 out_channel $end
$var wire 2 n74 out_count0 $end
$var wire 2 n75 out_count1 $end
$var wire 2 n76 out_count2 $end
$var wire 36 n77 out_data $end
$var wire 1 n78 out_endofpacket $end
$var wire 1 n79 out_fire $end
$var wire 1 n80 out_ready $end
$var wire 4 n81 out_stall_ctr $end
$var wire 1 n82 out_startofpacket $end
$var wire 1 n83 out_valid $end
$var wire 1 n84 reset_n $end
$var wire 1 n85 rst $end
$var wire 1 n86 src0_active $end
$var wire 1 n87 src0_beat $end
$var wire 1 n88 src0_started $end
$var wire 1 n89 src1_active $end
$var wire 1 n90 src1_beat $end
$var wire 1 n91 src1_started $end
$var wire 1 n92 src2_active $end
$var wire 1 n93 src2_beat $end
$var wire 1 n94 src2_started $end
$var wire 2 n95 start0 $end
$var wire 2 n96 start1 $end
$var wire 2 n97 start2 $end
$var wire 2 n98 total_beats0 $end
$var wire 2 n99 total_beats1 $end
$var wire 2 n100 total_beats2 $end
$upscope $end
$enddefinitions $end
#0
1!
b00000000000000000000000000000000 t
b1 n1
b1 n32
b0 n0
b00 n2
b000101010001101000101100001100000000 n3
b1 n4
b00010101000110100010110000110000000011 n5
b1 n6
b1 n7
b0 n8
b010101010001101000101100001100000010 n9
b1 n10
b01010101000110100010110000110000001011 n11
b1 n12
b1 n13
b0 n14
b100101010001101000101100001100000100 n15
b1 n16
b10010101000110100010110000110000010011 n17
b1 n18
b1 n19
b0 n20
b00 n21
b000000000000000000000000000000000000 n22
b0 n23
b00000000000000000000000000000000000000 n24
b0 n25
b00 n26
b0 n27
b0 n28
b0 n29
b0 n30
b0000000000000000000000000000000000000001 n31
b0000010101000110100010110000110000000011 n33
b1 n34
b0 n35
b0000000000000000000000000000000000000000 n36
b0 n37
b0 n38
b0 n39
b0 n40
b0 n41
b00 n42
b1 n43
b00010101000110100010110000110000000011 n44
b1 n45
b0 n46
b000000 n47
b0 n48
b11 n49
b0 n50
b0 n51
b0101010001101000101100001100000000 n52
b1 n53
b0 n54
b1 n55
b1 n56
b0 n57
b0101010001101000101100001100000010 n58
b1 n59
b0 n60
b1 n61
b1 n62
b0 n63
b0101010001101000101100001100000100 n64
b1 n65
b0 n66
b1 n67
b1 n68
b0 n69
b0 n70
b0 n71
b0 n72
b00 n73
b00 n74
b00 n75
b00 n76
b000000000000000000000000000000000000 n77
b0 n78
b0 n79
b0 n80
b0000 n81
b0 n82
b0 n83
b0 n84
b1 n85
b0 n86
b0 n87
b0 n88
b0 n89
b0 n90
b0 n91
b0 n92
b0 n93
b0 n94
b00 n95
b00 n96
b01 n97
b01 n98
b01 n99
b01 n100
#5
b0 n1
b0 n32
#10
1!
b00000000000000000000000000000001 t
b1 n1
b1 n32
b0 n0
b00 n2
b000101010001101000101100001100000000 n3
b1 n4
b00010101000110100010110000110000000011 n5
b1 n6
b1 n7
b0 n8
b010101010001101000101100001100000010 n9
b1 n10
b01010101000110100010110000110000001011 n11
b1 n12
b1 n13
b0 n14
b100101010001101000101100001100000100 n15
b1 n16
b10010101000110100010110000110000010011 n17
b1 n18
b1 n19
b0 n20
b00 n21
b000000000000000000000000000000000000 n22
b0 n23
b00000000000000000000000000000000000000 n24
b0 n25
b00 n26
b0 n27
b0 n28
b0 n29
b0 n30
b0000000000000000000000000000000000000000 n31
b0000010101000110100010110000110000000011 n33
b1 n34
b0 n35
b0000000000000000000000000000000000000000 n36
b0 n37
b0 n38
b0 n39
b0 n40
b0 n41
b00 n42
b1 n43
b00010101000110100010110000110000000011 n44
b1 n45
b0 n46
b000000 n47
b1 n48
b10 n49
b0 n50
b0 n51
b0101010001101000101100001100000000 n52
b1 n53
b0 n54
b1 n55
b1 n56
b0 n57
b0101010001101000101100001100000010 n58
b1 n59
b0 n60
b1 n61
b1 n62
b0 n63
b0101010001101000101100001100000100 n64
b1 n65
b0 n66
b1 n67
b1 n68
b0 n69
b0 n70
b0 n71
b0 n72
b00 n73
b00 n74
b00 n75
b00 n76
b000000000000000000000000000000000000 n77
b0 n78
b0 n79
b0 n80
b0000 n81
b0 n82
b0 n83
b0 n84
b1 n85
b0 n86
b0 n87
b0 n88
b0 n89
b0 n90
b0 n91
b0 n92
b0 n93
b0 n94
b00 n95
b00 n96
b01 n97
b01 n98
b01 n99
b01 n100
#15
b0 n1
b0 n32
#20
1!
b00000000000000000000000000000010 t
b1 n1
b1 n32
b0 n0
b00 n2
b000101010001101000101100001100000000 n3
b1 n4
b00010101000110100010110000110000000011 n5
b1 n6
b1 n7
b0 n8
b010101010001101000101100001100000010 n9
b1 n10
b01010101000110100010110000110000001011 n11
b1 n12
b1 n13
b0 n14
b100101010001101000101100001100000100 n15
b1 n16
b10010101000110100010110000110000010011 n17
b1 n18
b1 n19
b0 n20
b00 n21
b000000000000000000000000000000000000 n22
b0 n23
b00000000000000000000000000000000000000 n24
b0 n25
b00 n26
b0 n27
b0 n28
b0 n29
b0 n30
b0000000000000000000000000000000000000000 n31
b0000010101000110100010110000110000000011 n33
b1 n34
b0 n35
b0000000000000000000000000000000000000000 n36
b0 n37
b0 n38
b1 n39
b0 n40
b1 n41
b00 n42
b1 n43
b00010101000110100010110000110000000011 n44
b1 n45
b0 n46
b000000 n47
b1 n48
b00 n49
b0 n50
b0 n51
b0101010001101000101100001100000000 n52
b1 n53
b0 n54
b1 n55
b1 n56
b0 n57
b0101010001101000101100001100000010 n58
b1 n59
b0 n60
b1 n61
b1 n62
b0 n63
b0101010001101000101100001100000100 n64
b1 n65
b0 n66
b1 n67
b1 n68
b0 n69
b0 n70
b0 n71
b0 n72
b00 n73
b00 n74
b00 n75
b00 n76
b000000000000000000000000000000000000 n77
b0 n78
b0 n79
b0 n80
b0000 n81
b0 n82
b0 n83
b1 n84
b0 n85
b0 n86
b0 n87
b0 n88
b0 n89
b0 n90
b0 n91
b0 n92
b0 n93
b0 n94
b00 n95
b00 n96
b01 n97
b01 n98
b01 n99
b01 n100
#25
b0 n1
b0 n32
#30
1!
b00000000000000000000000000000011 t
b1 n1
b1 n32
b0 n0
b01 n2
b000101010001101000101100001100000000 n3
b1 n4
b00010101000110100010110000110000000011 n5
b1 n6
b1 n7
b1 n8
b010101010001101000101100001100000010 n9
b1 n10
b01010101000110100010110000110000001011 n11
b0 n12
b1 n13
b1 n14
b100101010001101000101100001100000100 n15
b1 n16
b10010101000110100010110000110000010011 n17
b1 n18
b1 n19
b0 n20
b00 n21
b000000000000000000000000000000000000 n22
b0 n23
b00000000000000000000000000000000000000 n24
b0 n25
b00 n26
b0 n27
b0 n28
b0 n29
b0 n30
b0000000000000000000000000000000000000000 n31
b0000010101000110100010110000110000000011 n33
b1 n34
b1 n35
b0000000000000000000000000000000000000000 n36
b0 n37
b0 n38
b1 n39
b0 n40
b1 n41
b00 n42
b1 n43
b00010101000110100010110000110000000011 n44
b1 n45
b1 n46
b000001 n47
b1 n48
b00 n49
b0 n50
b0 n51
b0101010001101000101100001100000000 n52
b1 n53
b1 n54
b1 n55
b1 n56
b1 n57
b0101010001101000101100001100000010 n58
b1 n59
b0 n60
b0 n61
b1 n62
b1 n63
b0101010001101000101100001100000100 n64
b1 n65
b0 n66
b1 n67
b1 n68
b0 n69
b0 n70
b0 n71
b0 n72
b00 n73
b00 n74
b00 n75
b00 n76
b000000000000000000000000000000000000 n77
b0 n78
b0 n79
b0 n80
b0000 n81
b0 n82
b0 n83
b1 n84
b0 n85
b1 n86
b0 n87
b1 n88
b1 n89
b0 n90
b1 n91
b0 n92
b0 n93
b0 n94
b00 n95
b00 n96
b01 n97
b01 n98
b01 n99
b01 n100
#35
b0 n1
b0 n32
#40
1!
b00000000000000000000000000000100 t
b1 n1
b1 n32
b0 n0
b10 n2
b000101010001101000101100001100000000 n3
b1 n4
b00010101000110100010110000110000000011 n5
b1 n6
b1 n7
b0 n8
b010101010001101000101100001100000010 n9
b1 n10
b01010101000110100010110000110000001011 n11
b1 n12
b1 n13
b1 n14
b100101010001101000101100001100000100 n15
b1 n16
b10010101000110100010110000110000010011 n17
b0 n18
b1 n19
b1 n20
b00 n21
b000101010001101000101100001100000000 n22
b1 n23
b00010101000110100010110000110000000011 n24
b1 n25
b00 n26
b1 n27
b1 n28
b1 n29
b1 n30
b0000010101000110100010110000110000000011 n31
b0101010101000110100010110000110000001011 n33
b1 n34
b1 n35
b0000010101000110100010110000110000000011 n36
b1 n37
b1 n38
b1 n39
b0 n40
b1 n41
b01 n42
b1 n43
b01010101000110100010110000110000001011 n44
b1 n45
b1 n46
b000010 n47
b1 n48
b00 n49
b0 n50
b0 n51
b0101010001101000101100001100000000 n52
b1 n53
b0 n54
b1 n55
b1 n56
b0 n57
b0101010001101000101100001100000010 n58
b1 n59
b1 n60
b1 n61
b1 n62
b1 n63
b0101010001101000101100001100000100 n64
b1 n65
b0 n66
b0 n67
b1 n68
b1 n69
b0 n70
b0 n71
b0 n72
b00 n73
b00 n74
b00 n75
b00 n76
b000101010001101000101100001100000000 n77
b1 n78
b1 n79
b1 n80
b0000 n81
b1 n82
b1 n83
b1 n84
b0 n85
b0 n86
b0 n87
b1 n88
b1 n89
b0 n90
b1 n91
b1 n92
b0 n93
b1 n94
b00 n95
b00 n96
b01 n97
b01 n98
b01 n99
b01 n100
#45
b0 n1
b0 n32
#50
1!
b00000000000000000000000000000101 t
b1 n1
b1 n32
b0 n0
b10 n2
b000101010001101000101100001100000000 n3
b1 n4
b00010101000110100010110000110000000011 n5
b1 n6
b1 n7
b0 n8
b010101010001101000101100001100000010 n9
b1 n10
b01010101000110100010110000110000001011 n11
b1 n12
b1 n13
b0 n14
b100101010001101000101100001100000100 n15
b1 n16
b10010101000110100010110000110000010011 n17
b1 n18
b1 n19
b1 n20
b01 n21
b010101010001101000101100001100000010 n22
b1 n23
b01010101000110100010110000110000001011 n24
b1 n25
b01 n26
b1 n27
b1 n28
b1 n29
b1 n30
b0101010101000110100010110000110000001011 n31
b1010010101000110100010110000110000010011 n33
b1 n34
b1 n35
b0101010101000110100010110000110000001011 n36
b1 n37
b1 n38
b1 n39
b0 n40
b1 n41
b10 n42
b1 n43
b10010101000110100010110000110000010011 n44
b1 n45
b1 n46
b000011 n47
b1 n48
b00 n49
b0 n50
b0 n51
b0101010001101000101100001100000000 n52
b1 n53
b0 n54
b1 n55
b1 n56
b0 n57
b0101010001101000101100001100000010 n58
b1 n59
b0 n60
b1 n61
b1 n62
b0 n63
b0101010001101000101100001100000100 n64
b1 n65
b1 n66
b1 n67
b1 n68
b1 n69
b0 n70
b0 n71
b0 n72
b01 n73
b01 n74
b00 n75
b00 n76
b010101010001101000101100001100000010 n77
b1 n78
b1 n79
b1 n80
b0000 n81
b1 n82
b1 n83
b1 n84
b0 n85
b0 n86
b0 n87
b1 n88
b0 n89
b0 n90
b1 n91
b1 n92
b0 n93
b1 n94
b00 n95
b00 n96
b01 n97
b01 n98
b01 n99
b01 n100
#55
b0 n1
b0 n32
#60
1!
b00000000000000000000000000000110 t
b1 n1
b1 n32
