firmware_builds/systems/system_20260427_testplanphase5/tb/INT_fe_scifi_v3-2026-04-17/formal/sc/sc_decode_formal_cover/engine_0/trace7.vcd
$version Generated by Yosys-SMTBMC $end
$timescale 1ns $end
$var integer 32 t smt_step $end
$var event 1 ! smt_clock $end
$scope module sc_decode_formal_tb $end
$var wire 1 n0 cmd_accept $end
$var wire 18 n1 cmd_addr $end
$var wire 9 n2 cmd_burstcount $end
$scope module dut $end
$var wire 32 n3 burst_end_addr $end
$var wire 32 n4 burstcount_w $end
$var wire 1 n5 clk $end
$var wire 1 n6 cmd_accept $end
$var wire 18 n7 cmd_addr $end
$var wire 32 n8 cmd_addr_w $end
$var wire 9 n9 cmd_burstcount $end
$var wire 1 n10 f_past_valid $end
$var wire 1 n11 rst $end
$var wire 1 n12 sc_crosses_aperture $end
$var wire 1 n13 sc_crosses_window $end
$var wire 1 n14 sc_end_control $end
$var wire 1 n15 sc_end_datapath $end
$var wire 5 n16 sc_end_idx $end
$var wire 1 n17 sc_end_mutrig_cfg $end
$var wire 1 n18 sc_start_any $end
$var wire 1 n19 sc_start_control $end
$var wire 1 n20 sc_start_datapath $end
$var wire 5 n21 sc_start_idx $end
$var wire 1 n22 sc_start_mutrig_cfg $end
$var wire 1 n23 sc_unmapped $end
$upscope $end
$var wire 1 n24 f_past_valid $end
$var wire 2 n25 f_reset_sr $end
$var wire 1 n26 gclk $end
$var wire 1 n27 rst $end
$upscope $end
$enddefinitions $end
#0
1!
b00000000000000000000000000000000 t
b1 n5
b1 n26
b1 n0
b000000000000000000 n1
b000000000 n2
b11111111111111111111111111111111 n3
b00000000000000000000000000000000 n4
b1 n6
b000000000000000000 n7
b00000000000000000000000000000000 n8
b000000000 n9
b0 n10
b1 n11
b0 n12
b0 n13
b0 n14
b0 n15
b11111 n16
b0 n17
b1 n18
b1 n19
b0 n20
b01001 n21
b0 n22
b0 n23
b0 n24
b11 n25
b1 n27
#5
b0 n5
b0 n26
#10
1!
b00000000000000000000000000000001 t
b1 n5
b1 n26
b0 n0
b000000001111000000 n1
b101011000 n2
b00000000000000000000010100010111 n3
b00000000000000000000000101011000 n4
b0 n6
b000000001111000000 n7
b00000000000000000000001111000000 n8
b101011000 n9
b1 n10
b1 n11
b1 n12
b1 n13
b0 n14
b0 n15
b11111 n16
b0 n17
b1 n18
b1 n19
b0 n20
b01001 n21
b0 n22
b0 n23
b1 n24
b10 n25
b1 n27
#15
b0 n5
b0 n26
#20
1!
b00000000000000000000000000000010 t
b1 n5
b1 n26
b1 n0
b101111000000010001 n1
b000000010 n2
b00000000000000101111000000010010 n3
b00000000000000000000000000000010 n4
b1 n6
b101111000000010001 n7
b00000000000000101111000000010001 n8
b000000010 n9
b1 n10
b0 n11
b0 n12
b0 n13
b0 n14
b1 n15
b01111 n16
b0 n17
b1 n18
b0 n19
b1 n20
b01111 n21
b0 n22
b0 n23
b1 n24
b00 n25
b0 n27
#25
b0 n5
b0 n26
#30
1!
b00000000000000000000000000000011 t
b1 n5
b1 n26
b1 n0
b000000000000000000 n1
b000000001 n2
b00000000000000000000000000000000 n3
b00000000000000000000000000000001 n4
b1 n6
b000000000000000000 n7
b00000000000000000000000000000000 n8
b000000001 n9
b1 n10
b0 n11
b0 n12
b0 n13
b1 n14
b0 n15
b01001 n16
b0 n17
b1 n18
b1 n19
b0 n20
b01001 n21
b0 n22
b0 n23
b1 n24
b00 n25
b0 n27
#35
b0 n5
b0 n26
#40
1!
b00000000000000000000000000000100 t
b1 n5
b1 n26
